…
The bible of text mining with R (by Julia Silge and David Robinson) is very, very helpful !

Well, you have the scripts in a data frame, but to have a tidy text

library(tidyverse)
library(tidytext)

Words frequency

df <- readRDS("df.RDS")
df %>%
  unnest_tokens(word, episodes_scripts, token = "sentences", to_lower = FALSE) 

## # A tibble: 5,830 x 2
##    episodes_titles     word                                               
##    <chr>               <chr>                                              
##  1 10. The White Viol… 1     Reggie.                                      
##  2 10. The White Viol… Don't you look dapper?                             
##  3 10. The White Viol… Well, I thought it was right   to buy something sp…
##  4 10. The White Viol… As you requested.                                  
##  5 10. The White Viol… I didn't realize that  you felt up to playing.     
##  6 10. The White Viol… I don't.                                           
##  7 10. The White Viol… I want you to take it with you.                    
##  8 10. The White Viol… No, my love.                                       
##  9 10. The White Viol… Please.                                            
## 10 10. The White Viol… Find someone   who'll love it as much as I have.   
## # ... with 5,820 more rows
…
